i have raw data that looks like this:

raw_data
# A tibble: 18,005 × 47
   Participant.ID    X1..I.think.City.Cou…¹ X2.1.Supports.enviro…² X2.2.Supports.truth.…³ X2.3.Makes.sure.ever…⁴
   <chr>             <chr>                                   <dbl>                  <dbl>                  <dbl>
 1 3ffa0a65b886c37c… NA                                         NA                     NA                     NA
 2 04ec2762a1b7a4aa… NA                                         NA                     NA                     NA
 3 39cf833d2f849b2a… NA                                         NA                     NA                     NA
 4 21acfa642ebb1bbd… Parks and recreation                        1                     NA                     NA
 5 970cde740df02888… Affordable housing an…                     NA                     NA                      1
 6 0e423b1be0ba0a7f… NA                                         NA                     NA                     NA
 7 e24009a796d24e43… NA                                         NA                     NA                     NA
 8 18df5a26bf235fa8… Affordable housing an…                     NA                     NA                      1
 9 f3afb44a2352ffaf… NA                                         NA                     NA                     NA
10 08c6cc7179833855… NA                                         NA                     NA                     NA
# ℹ 17,995 more rows
# ℹ abbreviated names:
#   ¹​X1..I.think.City.Council.should.consider.increasing.the.budget.for.the.following.service..select.one..,
#   ²​X2.1.Supports.environmental.and.climate.action, ³​X2.2.Supports.truth..justice.and.reconciliation,
#   ⁴​X2.3.Makes.sure.everyone.in.Toronto.has.equitable.access.to.services.and.supports
# ℹ 42 more variables: X2.4.Makes.it.easier.to.get.around <dbl>,
#   X2.5.Supports.social..physical.and.mental.well.being <dbl>, …
# ℹ Use print(n = ...) to see more rows
…
